<?xml version="1.0" encoding="UTF-8"?>
<session version="1.0">
<refactoring accessors="true" comment="Delete element from project &apos;SBD&apos;&#x0A;- Original project: &apos;SBD&apos;&#x0A;- Original element: &apos;DylewskiSierkaDB.PodrozGenerala.java&apos;" description="Delete element" element1="/src&lt;DylewskiSierkaDB{PodrozGenerala.java" elements="1" flags="589830" id="org.eclipse.jdt.ui.delete" resources="0" stamp="1452764113666" subPackages="false" version="1.0"/>
</session>